chan	x	y	SiPM_oct	tile_oct_1	tile_oct_2
57	0	7	4mm	R18_ewrap_U	CALICE
58	1	7	4mm	R18_lfwrap_U	R12_ewrap_U
59	2	7	2mm	R18_ewrap_U	R4_ewrap_U
61	3	7	2mm	R18_ewrap_O	R8_ewrap_U
66	4	7	2mm	R18_ewrap_O	R22_ewrap_U
67	5	7	2mm	R18_ewrap_O	R6_ewrap_U
68	6	7	2mm	R18_lfwrap_O	R6_ewrap_P
70	7	7	2mm	R18_ewrap_O	CALICE_prop
55	0	6	4mm	R18_ewrap_O	R14_ewrap_U
56	1	6	4mm	CALICE_edge	R0_ewrap_U
60	2	6	2mm	R18_ewrap_U	R10_ewrap_U
62	3	6	2mm	R18_ewrap_O	R8_ewrap_P
64	4	6	2mm	R18_ewrap_O	R12_ewrap_U
65	5	6	2mm	R18_ewrap_O	R16_ewrap_U
69	6	6	2mm	R18_lfwrap_O	R16_ewrap_U
71	7	6	2mm	CALICE_edge	R0_ewrap_U
47	0	5	4mm	R20_ewrap_O	R2_ewrap_P
48	1	5	4mm	R20_ewrap_O	R4_ewrap_U
49	2	5	4mm	R20_lfwrap_O	R10_ewrap_U
50	3	5	H_4mm	CALICE_prop	CALICE_prop
38	4	5	4mm	R20_ewrap_O	R2_U
39	5	5	4mm	R20_ewrap_O	R20_ewrap_O
43	6	5	n	n	n
40	7	5	4mm	R20_ewrap_U	R16_ewrap_U
46	0	4	n	n	n
45	1	4	n	n	n
51	2	4	n	n	n
52	3	4	n	n	n
36	4	4	n	n	n
37	5	4	n	n	n
42	6	4	n	n	n
41	7	4	4mm	R20_ewrap_U	R24_ewrap_U
25	0	3	n	n	n
26	1	3	n	n	n
31	2	3	n	n	n
29	3	3	n	n	n
35	4	3	n	n	n
33	5	3	IR_4mm	R0_UP	R20_ewrap_O
20	6	3	n	n	n
19	7	3	n	n	n
23	0	2	n	n	n
24	1	2	IR_2mm	R0_UP	R20_ewrap_O
30	2	2	n	n	n
28	3	2	n	n	n
34	4	2	n	n	n
32	5	2	n	n	n
22	6	2	n	n	n
21	7	2	n	n	n
6	0	1	n	n	n
7	1	1	n	n	n
0	2	1	n	n	n
2	3	1	n	n	n
11	4	1	n	n	n
12	5	1	n	n	n
14	6	1	n	n	n
16	7	1	H_2mm	CALICE_prop	CALICE_prop
5	0	0	n	n	n
4	1	0	H_bond	CALICE_prop	CALICE_prop
1	2	0	n	n	n
3	3	0	n	n	n
10	4	0	n	n	n
9	5	0	n	n	n
13	6	0	n	n	n
15	7	0	n	n	n
